# MTL File produced by proceduralVoxelApp
newmtl Material_/home/ryan/proceduralvoxels/ProcVoxels/ProcVoxelsApp/Resources/gitara2.png_/home/ryan/proceduralvoxels/ProcVoxels/ProcVoxelsApp/Resources/gitara2.png.001
Ns 92.156863
Ka 0.000000 0.000000 0.000000
Kd 0.572953 0.572953 0.572953
Ks 0.388889 0.388889 0.388889
Ni 1.000000
d 1.000000
illum 2
map_Kd /home/ryan/proceduralvoxels/ProcVoxels/ProcVoxelsApp/Resources/gitara2.png
