# 
# Wavefront material file
# Converted by the DEEP Exploration  3.5.0.448
# Right Hemisphere, LTD
# http://www.righthemisphere.com/
# 

newmtl orig_01___Defaul
Ka 0.588235 0.588235 0.588235
Kd 0.588235 0.588235 0.588235
Ks 0.898039 0.898039 0.898039
illum 2
Ns 4
map_Kd gitara_v2.png
map_bump gitara_normal.tga
bump gitara_normal.tga
